2025-sample-sequencing-run
…
How many of the ASVs only match one CR?

top_hits %>%
  add_tally(name = "n_CR_seqs") %>%
  filter(n_CR_seqs > 1)

## # A tibble: 98 × 13
## # Groups:   ASV [43]
##    ASV   ref_id perc_id   len mismatch   gap    X7    X8    X9   X10   X11   X12
##    <chr> <chr>    <dbl> <dbl>    <dbl> <dbl> <dbl> <dbl> <dbl> <dbl> <dbl> <dbl>
##  1 ASV1  CR01     100     379        0     0     1   379    18   396     0   701
##  2 ASV1  CR31     100     377        0     0     3   379    20   396     0   697
##  3 ASV1… CR17      97.1   379        9     1     1   377    18   396     0   638
##  4 ASV1… CR08      97.1   379        9     1     1   377    18   396     0   638
##  5 ASV1… CR01     100     376        0     0     1   376    18   393     0   695
##  6 ASV1… CR31     100     374        0     0     3   376    20   393     0   691
##  7 ASV1… CR01     100     379        0     0     1   379    18   396     0   701
##  8 ASV1… CR31     100     377        0     0     3   379    20   396     0   697
##  9 ASV1… CR40      99.5   379        2     0     1   379    18   396     0   689
## 10 ASV1… CR13      99.5   379        2     0     1   379    18   396     0   689
## # ℹ 88 more rows
## # ℹ 1 more variable: n_CR_seqs <int>
…
