…
    ## [1] 178  81

``` r
as_data_frame(getSequences(seqtab))
```

    ## Warning: `as_data_frame()` was deprecated in tibble 2.0.0.
    ## ℹ Please use `as_tibble()` (with slightly different semantics) to convert to a
    ##   tibble, or `as.data.frame()` to convert to a data frame.
    ## This warning is displayed once per session.
    ## Call `lifecycle::last_lifecycle_warnings()` to see where this warning was
    ## generated.

    ## # A tibble: 81 × 1
    ##    value                                                                        
    ##    <chr>                                                                        
    ##  1 TGTTTATTAAAGCACTACTGTACTACGTCAGTATTAAAAATAGCCTACTCCTAAACATCCCACTACAACTACCATG…
    ##  2 TGTTTATTAAAGCACTACTGTACTACGTCAGTATTAAAAATAGCCTACTCCTAAACATCCCACTACAACCACCATG…
    ##  3 TGTTTATTAAAGCACTACTGTACTACGTCAGTATTAAAAATAGCCTACTCCTAAACATCCCACTACAACTACCATG…
    ##  4 TGTTTATTAAAGCACTACTGTACTACGTCAGTATTAAAAATAGCCTACTCCTAAACATCCCACTACAACTACCATG…
    ##  5 TGTTTATTAAAGCACTACTGTACTACGTCAGTATTAAAAATAGCCTACTCCTAAACATTCCACTACAACTACCATG…
    ##  6 TGTTTATTAAAGCACTACTGTACTACGTCAGTATTAAAAATAGCCTACTCCTAAACATCCCACTACAACTACCATG…
    ##  7 TGTTTATTAAAGCACTACTGTACTACGTCAGTATTAAAAATAGCCTACTCCTAAACATCCCACTACAACTACCATG…
    ##  8 TGTTTATTAAAGCACTACTGTACTACGTCAGTATTAAAAATAGCCTACTCCTAAACATCCCACTACAATTACCATG…
    ##  9 TGTTTATTAAAGCACTACTGTACTACGTCAGTATTAAAAATAGCCTACTCCTAAACACCCCACTACAACTACCATG…
    ## 10 TGTTTATTAAAGCACTACTGTACTACGTCAGTATTAAAAATAGCCTACTCCTAAACATCCCACTACAATTACCATG…
    ## # ℹ 71 more rows
…
